{"count":2806,"next":"https://api.chainnews.com/api/news.json?page=2","previous":null,"results":[{"url":"/news/693656091252.htm","title":"币安将在泽西岛开设一家加密货币交易所","content":"世界最大的加密货币交易所之一的币安与泽西岛政府旗下的 Digital Jersey 签署谅解备忘录。依据这份备忘录，币安将在泽西开设一家加密货币交易所。币安旗下的孵化机构 Binance Labs 会向位于泽西岛的区块链初创企业投资一亿美元，使泽西岛成为世界又一个数字之都。","tag_list":[{"id":1688,"name":"币安"},{"id":21,"name":"交易所"},{"id":318,"name":"投资"}],"origin_link":null,"pb_timestamp":1528873980,"published_at":1528845180,"pub_time":"15:13","cover":null,"identified_code":null,"share_image":"https://img.chainnews.com/upload/news/share/272566560ac293356adba66cb86db189.jpeg"},{"url":"/news/675127162813.htm","title":"EOS 众筹地址 ETH 全部转出","content":"据 IMEOS 报道，北京时间 6 月13 日 EOS 众筹地址转出 2,881.27648039 个 ETH，截止目前 EOS 众筹地址累计共转出 7,211,776.138203863 个 ETH, EOS 众筹地址 ETH 余额为 0.0，全部转出。","tag_list":[{"id":3,"name":"以太坊"},{"id":1339,"name":"EOS"}],"origin_link":null,"pb_timestamp":1528873320,"published_at":1528844520,"pub_time":"15:02","cover":null,"identified_code":null,"share_image":"https://img.chainnews.com/upload/news/share/443e4d8e92fe79f3ba207764709919e4.jpeg"},{"url":"/news/736128983995.htm","title":"Swarm 宣布推出代表公司股权的代币","content":"据彭博，私募股权的区块链平台 Swarm Fund 宣布推出代表公司股权的代币，以 Robinhood、Ripple 和滴滴为首，为有关加密货币的大公司构建二级市场。","tag_list":[{"id":3654,"name":"项目"},{"id":126,"name":"Ripple"},{"id":318,"name":"投资"}],"origin_link":null,"pb_timestamp":1528869420,"published_at":1528840620,"pub_time":"13:57","cover":null,"identified_code":null,"share_image":"https://img.chainnews.com/upload/news/share/f5ed3c68c313d84d5b91d2ee53f35024.jpeg"},{"url":"/news/788784297061.htm","title":"工信部加密货币评级报告新增 EOS 和 NAS","content":"中国工信部下辖的电子信息产业发展研究院 CCID 数字加密货币评级报告中新增两个评估对象： EOS 和 NAS。CCID 从创新、技术和应用三项指标对各种币进行了评估，稍早发布了第一份评估报告。","tag_list":[{"id":1339,"name":"EOS"},{"id":6773,"name":"观点"},{"id":3654,"name":"项目"}],"origin_link":null,"pb_timestamp":1528868880,"published_at":1528840080,"pub_time":"13:48","cover":null,"identified_code":null,"share_image":"https://img.chainnews.com/upload/news/share/1f33190a2eb0f3a2b5a962620751a7cc.jpeg"},{"url":"/news/216578522428.htm","title":"京东白条 ABS 首次运用区块链技术","content":"今日，「京东金融-华泰资管 19 号京东白条应收账款债权资产支持专项计划」成功设立并将于深交所挂牌转让。这一项目的设立，首次建立多方独立部署的联盟链，实现对京东金融 ABS 云平台区块链底层技术的升级。京东金融金融市场部负责人郝延山表示：联盟链需满足资产证券化业务各参与方的切实需求，才能充分体现区块链技术的应用价值。","tag_list":[{"id":3654,"name":"项目"},{"id":1399,"name":"技术"}],"origin_link":null,"pb_timestamp":1528861920,"published_at":1528833120,"pub_time":"11:52","cover":null,"identified_code":null,"share_image":"https://img.chainnews.com/upload/news/share/98c36b51208e1bf5e9f7c3ab956179e2.jpeg"},{"url":"/news/224063991952.htm","title":"肖风：央行发行数字货币的第一目标是取代市场先行的数字货币","content":"万向控股有限公司副董事长兼执行董事、分布式资本联合创始人肖风博士今日发表文章对央行发行数字货币进行了大胆猜想与建议。他表示：没有比特币就没有法定数字货币；央行发行法定数字货币的第一个目标就是取代现在数字货币市场上由私人机构提供的、锚定美元发行的稳定数字货币。","tag_list":[{"id":65,"name":"央行"},{"id":6773,"name":"观点"}],"origin_link":null,"pb_timestamp":1528859400,"published_at":1528830600,"pub_time":"11:10","cover":null,"identified_code":null,"share_image":"https://img.chainnews.com/upload/news/share/641dd39a92124f0a9d5aa642c5f4b035.jpeg"},{"url":"/news/198841533117.htm","title":"以太坊联合创始人：区块链具有比互联网兴衰「量级更大的破坏力」","content":"以太坊联合创始人约瑟夫·鲁宾认为区块链技术比起本世纪初的互联网蓬勃发展及泡沫破裂的「量级更大」。鲁宾周二在都柏林表示，「如果你回顾 10 多年前互联网领域的兴起与泡沫破灭，跟今天的区块链领域有很多相似点。很多钱投了进来，也损失了很多钱，很多项目折戟沉沙。这种兴衰就是我们人类经营地球的方式。」当被问到区块链是否会像互联网兴衰一样带来巨大破坏力时，鲁宾说：「量级更大的破坏力」。","tag_list":[{"id":3,"name":"以太坊"},{"id":6773,"name":"观点"}],"origin_link":null,"pb_timestamp":1528858320,"published_at":1528829520,"pub_time":"10:52","cover":null,"identified_code":null,"share_image":"https://img.chainnews.com/upload/news/share/9a384d28aab98f04c50e5671a021f561.jpeg"},{"url":"/news/961641168568.htm","title":"多位基金经理离职，富达国际暂时中止其加密货币投资","content":"富达国际 Fidelity 据报已暂停其加密货币基金的运营，因多位关键基金经理离职。富达国际在 2017 年利用资产负债表的细心调整，利用多余资金成立一支关注加密货币的小额投资基金，投资这一高风险、高回报资产。不过日前多位相关管理层离开富达国际自行创立加密货币基金或者加密业内相关企业，富达国际在该领域的投资暂时停止。","tag_list":[{"id":251,"name":"基金"},{"id":318,"name":"投资"}],"origin_link":"https://www.ccn.com/fidelity-is-looking-for-a-new-fund-manager-to-run-cryptocurrency-fund/","pb_timestamp":1528857120,"published_at":1528828320,"pub_time":"10:32","cover":null,"identified_code":null,"share_image":"https://img.chainnews.com/upload/news/share/7b32a115fdf7b30a4a1174da9cfd81c9.jpeg"},{"url":"/news/510657172899.htm","title":"以太坊客户端 Geth 漏洞导致逾 2,000 万美元加密货币被盗","content":"360 Netlab 近日发现，因为运行不安全的客户端 Geth，在过去几个月里，被盗的以太坊价值超过了 2,000 万美元。 Geth 是一款常用的客户端，运行以太坊节点。用户可用 Geth 通过 JSON-RPC 界面远程管理钱包。黑客可通过扫描与以太坊网络进行通信的 8545 端口，寻找暴露 JSON-RPC 的加密货币钱包，进而窃取货币。据了解，黑客一共窃取了 38,642 以太币，价值超过 2,050 万美元。","tag_list":[{"id":1881,"name":"安全"},{"id":3,"name":"以太坊"},{"id":508,"name":"钱包"}],"origin_link":null,"pb_timestamp":1528856220,"published_at":1528827420,"pub_time":"10:17","cover":null,"identified_code":null,"share_image":"https://img.chainnews.com/upload/news/share/057038254fa153237c8b1c6bc926f818.jpeg"},{"url":"/news/100642954165.htm","title":"IMF 总干事拉加德对加密货币未来持乐观态度","content":"国际货币组织 IMF 总干事拉加德认为，当今金融体系依然承受很多压力，自 2008 年金融危机以来，现有危险元素并未得到有效改善，同时她对各种加密货币的未来持乐观态度。拉加德近期在 G7 峰会期间称，能在市场的大浪淘沙中存活下来的加密资「能在人们储蓄、投资和支付等环节扮演一定角色」。","tag_list":[{"id":6773,"name":"观点"}],"origin_link":"https://www.newsbtc.com/2018/06/12/imf-chief-says-global-economic-outlook-worsening-optimism-towards-cryptocurrency/","pb_timestamp":1528855800,"published_at":1528827000,"pub_time":"10:10","cover":null,"identified_code":null,"share_image":"https://img.chainnews.com/upload/news/share/a392e47109212756c04686f95a49d753.jpeg"}],"is_stuff":false,"tag_name":null}